{
    "testName": "Benchmark.pmqtest",
    "specs": {
        "default": {
            "PARAMS": "-Sp99 -i100 -d0 -l10000"
        },
        "latest": {
            "PER_JOB_BUILD": "true",
            "gitrepo": "https://git.kernel.org/pub/scm/utils/rt-tests/rt-tests.git",
            "gitref": "unstable/devel/v1.1.1",
            "PARAMS": "-Sp99 -i100 -d0 -l10000"
        }
    }
}
