{
    "schema_version":"1.0",
    "criteria":[
        {
            "tguid":"exec",
            "fail_ok_list": ["execveat"]
        },
        {
            "tguid":"timers",
            "fail_ok_list": ["rtctest"]
        }
    ]
}
