{
    "schema_version":"1.0",
    "criteria":[
        {
            "tguid":"default.main.shell_random",
            "reference":{
                "operator":"ge",
                "value":800
            }
        },
        {
            "tguid":"default.main.python_random",
            "reference":{
                "operator":"ge",
                "value":750
            }
        }
    ]
}
