{
    "test_sets":[
        {
            "name":"default",
            "test_cases":[
                {
                    "name":"main",
                    "measurements":[
                        {
                            "name":"shell_random",
                            "unit":"none"
                        },
                        {
                            "name":"python_random",
                            "unit":"none"
                        }
                    ]
                }
            ]
        }
    ]
}
