{
    "schema_version":"1.0",
    "criteria": [
    {
        "tguid": "syscall",
        "min_pass": 1000,
        "max_fail": 5
    },
    {
        "tguid": "timers",
        "fail_ok_list": ["leapsec_timer"]
    },
    {
        "tguid": "pty",
        "must_pass_list": ["hangup01"]
    }
    ]
}
